{
    "title": "School",
    "category": "school",
    "lang": "en_US",
    "description": "",
    "words": [
        "after-school program",
        "algebra",
        "apple",
        "art",
        "assessment",
        "astronomy",
        "auditorium",
        "backpack",
        "band",
        "biology",
        "biology",
        "black board",
        "book bag",
        "book",
        "bus",
        "cafeteria",
        "calculus",
        "career",
        "chair",
        "chalk board",
        "charter school",
        "chemistry",
        "choir",
        "classroom",
        "club",
        "college",
        "colored pencil",
        "computer science",
        "computer",
        "conference",
        "crayon",
        "critical thinking",
        "curriculum",
        "dance",
        "desk",
        "diploma",
        "driver's Education",
        "earth science",
        "economics",
        "elementary school",
        "english",
        "foreign language",
        "freshmen",
        "game",
        "geography",
        "geometry",
        "grade",
        "graduation",
        "grammar",
        "guidance counselor",
        "gym",
        "health",
        "high school",
        "history",
        "home economics",
        "homeroom",
        "homeschool",
        "homework",
        "journalism",
        "junior",
        "kindergarten",
        "knowledge",
        "lab",
        "language arts",
        "learn",
        "learning",
        "lecture",
        "lesson plan",
        "lesson",
        "life science",
        "literacy",
        "literature",
        "locker room",
        "locker",
        "lunch box",
        "lunch money",
        "lunch",
        "manipulative",
        "marker",
        "math",
        "mentor",
        "metal shop",
        "meteorology",
        "methodology",
        "middle school",
        "music",
        "nurse",
        "nursery school",
        "objective",
        "orchestra",
        "organic chemistry",
        "paint brush",
        "paint",
        "paper",
        "parent",
        "pen",
        "pencil",
        "performance",
        "performance",
        "phonics",
        "physical education",
        "physics",
        "poetry",
        "pre-algebra",
        "pre-calculus",
        "preschool",
        "president",
        "principal",
        "private school",
        "problem-solving",
        "project",
        "prom",
        "public school",
        "pupil",
        "quiz",
        "reading",
        "routines",
        "rubric",
        "SAT",
        "schedule",
        "school board",
        "school",
        "science fair",
        "science",
        "score",
        "senior",
        "skills",
        "sophomore",
        "spanish",
        "specials",
        "speech",
        "sports",
        "standards",
        "student counsel",
        "student",
        "study",
        "tablet",
        "teach",
        "teacher",
        "test",
        "text book",
        "trigonometry",
        "vice president",
        "white board",
        "woodshop"
    ]
}
