{
    "title": "Ocupacions",
    "category": "occupations",
    "lang": "ca_ES",
    "description": "",
    "words": [
        "contable",
        "actor/actiur",
        "auxiliar d'administració",
        "enginyer/a aeroespacial",
        "contralador/a aeri",
        "anestesiologista",
        "arcitecte/a",
        "artista",
        "forner/a",
        "caixer/a de banc",
        "cambrer/",
        "auxiliar de bar",
        "conductor/a d'autobús",
        "cernicer/a",
        "fuster/a",
        "capità/ana",
        "caixer/a",
        "enginyer/a químic/a",
        "químic/a",
        "director/a",
        "quiropràctic/a",
        "enginyer/a civil",
        "dependent/a",
        "entrenador/a",
        "tècnic/a informàtic/a",
        "obrer/a",
        "cuiner/a",
        "funcionari/a de presons",
        "terapeuta",
        "atenció al client",
        "administrador/a de bases de dades",
        "higienista dental",
        "dentista",
        "dissenyador/a",
        "detecteiu",
        "cap",
        "rentaplats",
        "controlador/a",
        "doctor/a",
        "editor/a",
        "enginyer/a elèctric/a",
        "electricista",
        "enginyer/a",
        "executiu/va",
        "pagès/esa",
        "analista financer",
        "bomber/a",
        "femeter/a",
        "general",
        "encarregat/ada",
        "perruquer/a",
        "emprat/ada de manteniment",
        "auxiliar de vol",
        "influencer",
        "inspector/a",
        "dissnador/a d'interiors",
        "intern/a",
        "conserge",
        "jutge/ssa",
        "jardiner/a",
        "advocat/ada",
        "legislador/a",
        "bibliotecari/ària",
        "socorrista",
        "enginyer/a ferroviari/ària",
        "empleat/ada domèstica",
        "carter/a",
        "gerent",
        "massatgista",
        "mecànic/a",
        "enginyer/a mecànic",
        "missatger/a",
        "músic/a",
        "auxiliar d'infermeria",
        "pintor/a",
        "assistent/a legal",
        "pastor/a",
        "pediatre/a",
        "farmacèutic/a",
        "fotògraf/a",
        "fisioterapeuta",
        "pilot/a",
        "fontaner/a",
        "policia",
        "polític/a",
        "president/a",
        "sacerdot/issa",
        "investigador/a privat",
        "professor/a",
        "agent immobiliari",
        "recepcionista",
        "picapedrer/a",
        "mariner/a",
        "venedor/a",
        "científic/a",
        "guarda de seguretat",
        "xèrif/a",
        "singer",
        "treballador/a social",
        "programador/a",
        "soldat/da",
        "supervisor/a",
        "cirurgià/ana",
        "topògraf/a",
        "sastre",
        "mestre/a",
        "escriptor/a tècnica",
        "teleoperdor/a",
        "assajador/a",
        "terapeuta",
        "entrenador/a",
        "traductor/a",
        "agent de viatges",
        "camioner/a",
        "aparcador/a de cotxes",
        "veterinari/a",
        "soldador/a",
        "vigilant de zoo"
    ]
}
