{
    "title": "Koken",
    "category": "cooking",
    "lang": "nl_NL",
    "description": "",
    "words": [
        "afgieten",
        "afmeten",
        "airfryer",
        "avondeten",
        "bakblik",
        "bakken",
        "bakpoeder",
        "basilicum",
        "bedruipen",
        "beetgaar",
        "beker",
        "beslag",
        "beslagkom",
        "besprenkelen",
        "bevriezen",
        "blancheren",
        "blenden",
        "blender",
        "blikopener",
        "bloem",
        "braadpan",
        "broodrooster",
        "bruineren",
        "brunch",
        "cakeblik",
        "deegroller",
        "deksel",
        "diepgebakken",
        "dunschiller",
        "eetlepel",
        "eierkoker",
        "emulgeren",
        "garneren",
        "gasstel",
        "gist"
        "glazuur",
        "gratineren",
        "grill",
        "hakken",
        "handmixer",
        "houtoven",
        "ingrediënten",
        "kaasdoek",
        "kaneel",
        "karameliseren",
        "keukenkastje",
        "keukenmachine",
        "keukenschaar",
        "kloppen",
        "kneden",
        "koekenpan",
        "koektrommel",
        "koelkast",
        "koken",
        "kom",
        "komijn",
        "kookboek",
        "kruiden",
        "lunch",
        "magnetron",
        "mandoline",
        "mes",
        "mixen",
        "muffinblik",
        "olijfolie",
        "ontbijt",
        "ontdooien",
        "opkloppen",
        "oregano",
        "oven",
        "ovenhandschoen",
        "ovenrek",
        "ovenschaal",
        "pan",
        "paninipers",
        "paprika",
        "pekelen",
        "pellen",
        "peper",
        "pijp",
        "plaat",
        "plakje",
        "plantaardige olie",
        "pocheren",
        "pollepel",
        "pot",
        "provençaalse kruiden",
        "rasp",
        "recept",
        "rijstkoker",
        "roeren",
        "rullen",
        "sauteren",
        "slacentrifuge",
        "smelten",
        "snackoven",
        "snelkookpan",
        "snufje",
        "soeplepel",
        "spatel",
        "specerij",
        "spies",
        "springvorm",
        "staafmixer",
        "stomen",
        "stoofpot",
        "sudderen",
        "taartvorm",
        "tang",
        "theelepel",
        "thermometer",
        "thijm",
        "uitlekken",
        "uitsteekvorm",
        "vergiet",
        "verlagen",
        "vijzel en stamper",
        "vleugje",
        "voorverwarmen",
        "vork",
        "vriezer",
        "wafelijzer",
        "wokken",
        "zeven",
        "zout",
        "zoutpot",
        "zuiveringszout",
    ]
}
